(footprint "WSON-8-1EP_2.5x2.5mm_P0.5mm_EP1.2x1.9mm" (version 20221018) (generator pcbnew)
  (layer "F.Cu")
  (descr "WSON, 8 Pin (https://www.ti.com/lit/ds/symlink/hdc3022.pdf)")
  (tags "WSON NoLead")
  (attr smd)
  (fp_text reference "REF**" (at 0 -2.45) (layer "F.SilkS")
      (effects (font (size 1 1) (thickness 0.15)))
    (tstamp 2e681ff2-a201-42ec-925d-b488dce68ebc)
  )
  (fp_text value "WSON-8-1EP_2.5x2.5mm_P0.5mm_EP1.2x1.9mm" (at 0 2.45) (layer "F.Fab")
      (effects (font (size 1 1) (thickness 0.15)))
    (tstamp 035b962f-c979-4682-92cb-ba9ff20948a6)
  )
  (fp_text user "${REFERENCE}" (at 0 0) (layer "F.Fab")
      (effects (font (size 0.75 0.75) (thickness 0.11)))
    (tstamp 9e0ed37d-0821-4e20-afca-9f2ae1bbc79b)
  )
  (fp_line (start -1.25 1.36) (end 1.25 1.36)
    (stroke (width 0.12) (type solid)) (layer "F.SilkS") (tstamp b32ec959-9630-469e-bcaf-655722d292f1))
  (fp_line (start 0 -1.36) (end 1.25 -1.36)
    (stroke (width 0.12) (type solid)) (layer "F.SilkS") (tstamp 8f531d50-96c6-410e-8b67-6ef754c1986e))
  (fp_line (start -1.6 -1.5) (end -1.6 1.5)
    (stroke (width 0.05) (type solid)) (layer "F.CrtYd") (tstamp a722c85d-c8fb-424a-ae34-04acf41045c5))
  (fp_line (start -1.6 1.5) (end 1.6 1.5)
    (stroke (width 0.05) (type solid)) (layer "F.CrtYd") (tstamp 7880a041-284f-49f1-9cd6-485a85267514))
  (fp_line (start 1.6 -1.5) (end -1.6 -1.5)
    (stroke (width 0.05) (type solid)) (layer "F.CrtYd") (tstamp 09bb17d4-e2c4-4a85-a541-656f1100bb7a))
  (fp_line (start 1.6 1.5) (end 1.6 -1.5)
    (stroke (width 0.05) (type solid)) (layer "F.CrtYd") (tstamp 7fb3c11d-9478-47d7-b7a2-46308b36a902))
  (fp_line (start -1.25 -0.75) (end -0.75 -1.25)
    (stroke (width 0.1) (type solid)) (layer "F.Fab") (tstamp 24dda075-eb02-458f-8302-ba0f0befd1e7))
  (fp_line (start -1.25 1.25) (end -1.25 -0.75)
    (stroke (width 0.1) (type solid)) (layer "F.Fab") (tstamp 5b84d07b-879d-4e24-9976-289c41ff54e8))
  (fp_line (start -0.75 -1.25) (end 1.25 -1.25)
    (stroke (width 0.1) (type solid)) (layer "F.Fab") (tstamp 8df1cf4d-d8c2-4824-bcff-551178dc8fec))
  (fp_line (start 1.25 -1.25) (end 1.25 1.25)
    (stroke (width 0.1) (type solid)) (layer "F.Fab") (tstamp bcd6203a-e857-4f67-aa41-5f3728ffce00))
  (fp_line (start 1.25 1.25) (end -1.25 1.25)
    (stroke (width 0.1) (type solid)) (layer "F.Fab") (tstamp f415de2a-0f4c-4b1f-bf8c-d9008ec236d3))
  (pad "" smd roundrect (at 0 -0.5) (size 0.97 0.81) (layers "F.Paste") (roundrect_rratio 0.25) (tstamp a6ccbc41-cf31-47ca-b314-af5774688f33))
  (pad "" smd roundrect (at 0 0.5) (size 0.97 0.81) (layers "F.Paste") (roundrect_rratio 0.25) (tstamp ea6fe329-ab5b-4a87-b785-79f4673712b5))
  (pad "1" smd roundrect (at -1.15 -0.75) (size 0.6 0.25) (layers "F.Cu" "F.Paste" "F.Mask") (roundrect_rratio 0.25) (tstamp b4d55e78-6565-49ed-b68b-6b01316c0e55))
  (pad "2" smd roundrect (at -1.15 -0.25) (size 0.6 0.25) (layers "F.Cu" "F.Paste" "F.Mask") (roundrect_rratio 0.25) (tstamp 827fb05e-cfb2-4388-8f5a-73e38bcf7248))
  (pad "3" smd roundrect (at -1.15 0.25) (size 0.6 0.25) (layers "F.Cu" "F.Paste" "F.Mask") (roundrect_rratio 0.25) (tstamp fe1b2985-5443-43dc-a081-73f6438acbdd))
  (pad "4" smd roundrect (at -1.15 0.75) (size 0.6 0.25) (layers "F.Cu" "F.Paste" "F.Mask") (roundrect_rratio 0.25) (tstamp 9e3339f5-3962-4c23-8b11-32aeac973ddc))
  (pad "5" smd roundrect (at 1.15 0.75) (size 0.6 0.25) (layers "F.Cu" "F.Paste" "F.Mask") (roundrect_rratio 0.25) (tstamp fc210171-33a6-458a-a335-124b7a7f1223))
  (pad "6" smd roundrect (at 1.15 0.25) (size 0.6 0.25) (layers "F.Cu" "F.Paste" "F.Mask") (roundrect_rratio 0.25) (tstamp f81d90f3-a070-49d9-b19e-30216ec83371))
  (pad "7" smd roundrect (at 1.15 -0.25) (size 0.6 0.25) (layers "F.Cu" "F.Paste" "F.Mask") (roundrect_rratio 0.25) (tstamp 0bd9edd9-0715-4f50-9449-a7c1ebbccf80))
  (pad "8" smd roundrect (at 1.15 -0.75) (size 0.6 0.25) (layers "F.Cu" "F.Paste" "F.Mask") (roundrect_rratio 0.25) (tstamp f7d0e47c-d1c3-4713-9456-52d4464be939))
  (pad "9" smd roundrect (at 0 0) (size 1.2 1.9) (layers "F.Cu" "F.Mask") (roundrect_rratio 0.05208333333) (tstamp 2879cacc-5ac0-4d4b-85de-cf539a033f57))
  (model "${KICAD6_3DMODEL_DIR}/Package_SON.3dshapes/WSON-8-1EP_3x3mm_P0.5mm_EP1.2x2mm.wrl"
    (offset (xyz 0 0 0))
    (scale (xyz 1 1 1))
    (rotate (xyz 0 0 0))
  )
)
