%TF.GenerationSoftware,KiCad,Pcbnew,7.0.6*%
%TF.CreationDate,2023-08-05T16:47:55+02:00*%
%TF.ProjectId,DebugBreakoutBoard,44656275-6742-4726-9561-6b6f7574426f,rev?*%
%TF.SameCoordinates,Original*%
%TF.FileFunction,Drillmap*%
%TF.FilePolarity,Positive*%
%FSLAX45Y45*%
G04 Gerber Fmt 4.5, Leading zero omitted, Abs format (unit mm)*
G04 Created by KiCad (PCBNEW 7.0.6) date 2023-08-05 16:47:55*
%MOMM*%
%LPD*%
G01*
G04 APERTURE LIST*
%ADD10C,0.100000*%
%ADD11C,0.200000*%
G04 APERTURE END LIST*
D10*
X2540000Y-2540000D02*
X6350000Y-2540000D01*
X6350000Y-4572000D01*
X2540000Y-4572000D01*
X2540000Y-2540000D01*
D11*
D10*
X2998000Y-3252000D02*
X3098000Y-3352000D01*
X3098000Y-3252000D02*
X2998000Y-3352000D01*
X2998000Y-3506000D02*
X3098000Y-3606000D01*
X3098000Y-3506000D02*
X2998000Y-3606000D01*
X2998000Y-3760000D02*
X3098000Y-3860000D01*
X3098000Y-3760000D02*
X2998000Y-3860000D01*
X3252000Y-3252000D02*
X3352000Y-3352000D01*
X3352000Y-3252000D02*
X3252000Y-3352000D01*
X3252000Y-3506000D02*
X3352000Y-3606000D01*
X3352000Y-3506000D02*
X3252000Y-3606000D01*
X3252000Y-3760000D02*
X3352000Y-3860000D01*
X3352000Y-3760000D02*
X3252000Y-3860000D01*
X5538000Y-3252000D02*
X5638000Y-3352000D01*
X5638000Y-3252000D02*
X5538000Y-3352000D01*
X5538000Y-3506000D02*
X5638000Y-3606000D01*
X5638000Y-3506000D02*
X5538000Y-3606000D01*
X5538000Y-3760000D02*
X5638000Y-3860000D01*
X5638000Y-3760000D02*
X5538000Y-3860000D01*
X5792000Y-3252000D02*
X5892000Y-3352000D01*
X5892000Y-3252000D02*
X5792000Y-3352000D01*
X5792000Y-3506000D02*
X5892000Y-3606000D01*
X5892000Y-3506000D02*
X5792000Y-3606000D01*
X5792000Y-3760000D02*
X5892000Y-3860000D01*
X5892000Y-3760000D02*
X5792000Y-3860000D01*
D11*
X2795777Y-4888484D02*
X2795777Y-4688484D01*
X2795777Y-4688484D02*
X2843396Y-4688484D01*
X2843396Y-4688484D02*
X2871967Y-4698008D01*
X2871967Y-4698008D02*
X2891015Y-4717055D01*
X2891015Y-4717055D02*
X2900539Y-4736103D01*
X2900539Y-4736103D02*
X2910062Y-4774198D01*
X2910062Y-4774198D02*
X2910062Y-4802770D01*
X2910062Y-4802770D02*
X2900539Y-4840865D01*
X2900539Y-4840865D02*
X2891015Y-4859912D01*
X2891015Y-4859912D02*
X2871967Y-4878960D01*
X2871967Y-4878960D02*
X2843396Y-4888484D01*
X2843396Y-4888484D02*
X2795777Y-4888484D01*
X2995777Y-4888484D02*
X2995777Y-4755150D01*
X2995777Y-4793246D02*
X3005301Y-4774198D01*
X3005301Y-4774198D02*
X3014824Y-4764674D01*
X3014824Y-4764674D02*
X3033872Y-4755150D01*
X3033872Y-4755150D02*
X3052920Y-4755150D01*
X3119586Y-4888484D02*
X3119586Y-4755150D01*
X3119586Y-4688484D02*
X3110062Y-4698008D01*
X3110062Y-4698008D02*
X3119586Y-4707531D01*
X3119586Y-4707531D02*
X3129110Y-4698008D01*
X3129110Y-4698008D02*
X3119586Y-4688484D01*
X3119586Y-4688484D02*
X3119586Y-4707531D01*
X3243396Y-4888484D02*
X3224348Y-4878960D01*
X3224348Y-4878960D02*
X3214824Y-4859912D01*
X3214824Y-4859912D02*
X3214824Y-4688484D01*
X3348158Y-4888484D02*
X3329110Y-4878960D01*
X3329110Y-4878960D02*
X3319586Y-4859912D01*
X3319586Y-4859912D02*
X3319586Y-4688484D01*
X3576729Y-4888484D02*
X3576729Y-4688484D01*
X3576729Y-4688484D02*
X3643396Y-4831341D01*
X3643396Y-4831341D02*
X3710062Y-4688484D01*
X3710062Y-4688484D02*
X3710062Y-4888484D01*
X3891015Y-4888484D02*
X3891015Y-4783722D01*
X3891015Y-4783722D02*
X3881491Y-4764674D01*
X3881491Y-4764674D02*
X3862443Y-4755150D01*
X3862443Y-4755150D02*
X3824348Y-4755150D01*
X3824348Y-4755150D02*
X3805301Y-4764674D01*
X3891015Y-4878960D02*
X3871967Y-4888484D01*
X3871967Y-4888484D02*
X3824348Y-4888484D01*
X3824348Y-4888484D02*
X3805301Y-4878960D01*
X3805301Y-4878960D02*
X3795777Y-4859912D01*
X3795777Y-4859912D02*
X3795777Y-4840865D01*
X3795777Y-4840865D02*
X3805301Y-4821817D01*
X3805301Y-4821817D02*
X3824348Y-4812293D01*
X3824348Y-4812293D02*
X3871967Y-4812293D01*
X3871967Y-4812293D02*
X3891015Y-4802770D01*
X3986253Y-4755150D02*
X3986253Y-4955150D01*
X3986253Y-4764674D02*
X4005301Y-4755150D01*
X4005301Y-4755150D02*
X4043396Y-4755150D01*
X4043396Y-4755150D02*
X4062443Y-4764674D01*
X4062443Y-4764674D02*
X4071967Y-4774198D01*
X4071967Y-4774198D02*
X4081491Y-4793246D01*
X4081491Y-4793246D02*
X4081491Y-4850389D01*
X4081491Y-4850389D02*
X4071967Y-4869436D01*
X4071967Y-4869436D02*
X4062443Y-4878960D01*
X4062443Y-4878960D02*
X4043396Y-4888484D01*
X4043396Y-4888484D02*
X4005301Y-4888484D01*
X4005301Y-4888484D02*
X3986253Y-4878960D01*
X4167205Y-4869436D02*
X4176729Y-4878960D01*
X4176729Y-4878960D02*
X4167205Y-4888484D01*
X4167205Y-4888484D02*
X4157682Y-4878960D01*
X4157682Y-4878960D02*
X4167205Y-4869436D01*
X4167205Y-4869436D02*
X4167205Y-4888484D01*
X4167205Y-4764674D02*
X4176729Y-4774198D01*
X4176729Y-4774198D02*
X4167205Y-4783722D01*
X4167205Y-4783722D02*
X4157682Y-4774198D01*
X4157682Y-4774198D02*
X4167205Y-4764674D01*
X4167205Y-4764674D02*
X4167205Y-4783722D01*
D10*
X2435000Y-5167000D02*
X2535000Y-5267000D01*
X2535000Y-5167000D02*
X2435000Y-5267000D01*
D11*
X2900539Y-5308484D02*
X2786253Y-5308484D01*
X2843396Y-5308484D02*
X2843396Y-5108484D01*
X2843396Y-5108484D02*
X2824348Y-5137055D01*
X2824348Y-5137055D02*
X2805301Y-5156103D01*
X2805301Y-5156103D02*
X2786253Y-5165627D01*
X2986253Y-5289436D02*
X2995777Y-5298960D01*
X2995777Y-5298960D02*
X2986253Y-5308484D01*
X2986253Y-5308484D02*
X2976729Y-5298960D01*
X2976729Y-5298960D02*
X2986253Y-5289436D01*
X2986253Y-5289436D02*
X2986253Y-5308484D01*
X3119586Y-5108484D02*
X3138634Y-5108484D01*
X3138634Y-5108484D02*
X3157682Y-5118008D01*
X3157682Y-5118008D02*
X3167205Y-5127531D01*
X3167205Y-5127531D02*
X3176729Y-5146579D01*
X3176729Y-5146579D02*
X3186253Y-5184674D01*
X3186253Y-5184674D02*
X3186253Y-5232293D01*
X3186253Y-5232293D02*
X3176729Y-5270389D01*
X3176729Y-5270389D02*
X3167205Y-5289436D01*
X3167205Y-5289436D02*
X3157682Y-5298960D01*
X3157682Y-5298960D02*
X3138634Y-5308484D01*
X3138634Y-5308484D02*
X3119586Y-5308484D01*
X3119586Y-5308484D02*
X3100539Y-5298960D01*
X3100539Y-5298960D02*
X3091015Y-5289436D01*
X3091015Y-5289436D02*
X3081491Y-5270389D01*
X3081491Y-5270389D02*
X3071967Y-5232293D01*
X3071967Y-5232293D02*
X3071967Y-5184674D01*
X3071967Y-5184674D02*
X3081491Y-5146579D01*
X3081491Y-5146579D02*
X3091015Y-5127531D01*
X3091015Y-5127531D02*
X3100539Y-5118008D01*
X3100539Y-5118008D02*
X3119586Y-5108484D01*
X3310062Y-5108484D02*
X3329110Y-5108484D01*
X3329110Y-5108484D02*
X3348158Y-5118008D01*
X3348158Y-5118008D02*
X3357682Y-5127531D01*
X3357682Y-5127531D02*
X3367205Y-5146579D01*
X3367205Y-5146579D02*
X3376729Y-5184674D01*
X3376729Y-5184674D02*
X3376729Y-5232293D01*
X3376729Y-5232293D02*
X3367205Y-5270389D01*
X3367205Y-5270389D02*
X3357682Y-5289436D01*
X3357682Y-5289436D02*
X3348158Y-5298960D01*
X3348158Y-5298960D02*
X3329110Y-5308484D01*
X3329110Y-5308484D02*
X3310062Y-5308484D01*
X3310062Y-5308484D02*
X3291015Y-5298960D01*
X3291015Y-5298960D02*
X3281491Y-5289436D01*
X3281491Y-5289436D02*
X3271967Y-5270389D01*
X3271967Y-5270389D02*
X3262443Y-5232293D01*
X3262443Y-5232293D02*
X3262443Y-5184674D01*
X3262443Y-5184674D02*
X3271967Y-5146579D01*
X3271967Y-5146579D02*
X3281491Y-5127531D01*
X3281491Y-5127531D02*
X3291015Y-5118008D01*
X3291015Y-5118008D02*
X3310062Y-5108484D01*
X3500539Y-5108484D02*
X3519586Y-5108484D01*
X3519586Y-5108484D02*
X3538634Y-5118008D01*
X3538634Y-5118008D02*
X3548158Y-5127531D01*
X3548158Y-5127531D02*
X3557682Y-5146579D01*
X3557682Y-5146579D02*
X3567205Y-5184674D01*
X3567205Y-5184674D02*
X3567205Y-5232293D01*
X3567205Y-5232293D02*
X3557682Y-5270389D01*
X3557682Y-5270389D02*
X3548158Y-5289436D01*
X3548158Y-5289436D02*
X3538634Y-5298960D01*
X3538634Y-5298960D02*
X3519586Y-5308484D01*
X3519586Y-5308484D02*
X3500539Y-5308484D01*
X3500539Y-5308484D02*
X3481491Y-5298960D01*
X3481491Y-5298960D02*
X3471967Y-5289436D01*
X3471967Y-5289436D02*
X3462443Y-5270389D01*
X3462443Y-5270389D02*
X3452920Y-5232293D01*
X3452920Y-5232293D02*
X3452920Y-5184674D01*
X3452920Y-5184674D02*
X3462443Y-5146579D01*
X3462443Y-5146579D02*
X3471967Y-5127531D01*
X3471967Y-5127531D02*
X3481491Y-5118008D01*
X3481491Y-5118008D02*
X3500539Y-5108484D01*
X3652920Y-5308484D02*
X3652920Y-5175150D01*
X3652920Y-5194198D02*
X3662443Y-5184674D01*
X3662443Y-5184674D02*
X3681491Y-5175150D01*
X3681491Y-5175150D02*
X3710063Y-5175150D01*
X3710063Y-5175150D02*
X3729110Y-5184674D01*
X3729110Y-5184674D02*
X3738634Y-5203722D01*
X3738634Y-5203722D02*
X3738634Y-5308484D01*
X3738634Y-5203722D02*
X3748158Y-5184674D01*
X3748158Y-5184674D02*
X3767205Y-5175150D01*
X3767205Y-5175150D02*
X3795777Y-5175150D01*
X3795777Y-5175150D02*
X3814824Y-5184674D01*
X3814824Y-5184674D02*
X3824348Y-5203722D01*
X3824348Y-5203722D02*
X3824348Y-5308484D01*
X3919586Y-5308484D02*
X3919586Y-5175150D01*
X3919586Y-5194198D02*
X3929110Y-5184674D01*
X3929110Y-5184674D02*
X3948158Y-5175150D01*
X3948158Y-5175150D02*
X3976729Y-5175150D01*
X3976729Y-5175150D02*
X3995777Y-5184674D01*
X3995777Y-5184674D02*
X4005301Y-5203722D01*
X4005301Y-5203722D02*
X4005301Y-5308484D01*
X4005301Y-5203722D02*
X4014824Y-5184674D01*
X4014824Y-5184674D02*
X4033872Y-5175150D01*
X4033872Y-5175150D02*
X4062443Y-5175150D01*
X4062443Y-5175150D02*
X4081491Y-5184674D01*
X4081491Y-5184674D02*
X4091015Y-5203722D01*
X4091015Y-5203722D02*
X4091015Y-5308484D01*
X4481491Y-5098960D02*
X4310063Y-5356103D01*
X4738634Y-5108484D02*
X4757682Y-5108484D01*
X4757682Y-5108484D02*
X4776729Y-5118008D01*
X4776729Y-5118008D02*
X4786253Y-5127531D01*
X4786253Y-5127531D02*
X4795777Y-5146579D01*
X4795777Y-5146579D02*
X4805301Y-5184674D01*
X4805301Y-5184674D02*
X4805301Y-5232293D01*
X4805301Y-5232293D02*
X4795777Y-5270389D01*
X4795777Y-5270389D02*
X4786253Y-5289436D01*
X4786253Y-5289436D02*
X4776729Y-5298960D01*
X4776729Y-5298960D02*
X4757682Y-5308484D01*
X4757682Y-5308484D02*
X4738634Y-5308484D01*
X4738634Y-5308484D02*
X4719587Y-5298960D01*
X4719587Y-5298960D02*
X4710063Y-5289436D01*
X4710063Y-5289436D02*
X4700539Y-5270389D01*
X4700539Y-5270389D02*
X4691015Y-5232293D01*
X4691015Y-5232293D02*
X4691015Y-5184674D01*
X4691015Y-5184674D02*
X4700539Y-5146579D01*
X4700539Y-5146579D02*
X4710063Y-5127531D01*
X4710063Y-5127531D02*
X4719587Y-5118008D01*
X4719587Y-5118008D02*
X4738634Y-5108484D01*
X4891015Y-5289436D02*
X4900539Y-5298960D01*
X4900539Y-5298960D02*
X4891015Y-5308484D01*
X4891015Y-5308484D02*
X4881491Y-5298960D01*
X4881491Y-5298960D02*
X4891015Y-5289436D01*
X4891015Y-5289436D02*
X4891015Y-5308484D01*
X5024348Y-5108484D02*
X5043396Y-5108484D01*
X5043396Y-5108484D02*
X5062444Y-5118008D01*
X5062444Y-5118008D02*
X5071968Y-5127531D01*
X5071968Y-5127531D02*
X5081491Y-5146579D01*
X5081491Y-5146579D02*
X5091015Y-5184674D01*
X5091015Y-5184674D02*
X5091015Y-5232293D01*
X5091015Y-5232293D02*
X5081491Y-5270389D01*
X5081491Y-5270389D02*
X5071968Y-5289436D01*
X5071968Y-5289436D02*
X5062444Y-5298960D01*
X5062444Y-5298960D02*
X5043396Y-5308484D01*
X5043396Y-5308484D02*
X5024348Y-5308484D01*
X5024348Y-5308484D02*
X5005301Y-5298960D01*
X5005301Y-5298960D02*
X4995777Y-5289436D01*
X4995777Y-5289436D02*
X4986253Y-5270389D01*
X4986253Y-5270389D02*
X4976729Y-5232293D01*
X4976729Y-5232293D02*
X4976729Y-5184674D01*
X4976729Y-5184674D02*
X4986253Y-5146579D01*
X4986253Y-5146579D02*
X4995777Y-5127531D01*
X4995777Y-5127531D02*
X5005301Y-5118008D01*
X5005301Y-5118008D02*
X5024348Y-5108484D01*
X5157682Y-5108484D02*
X5281491Y-5108484D01*
X5281491Y-5108484D02*
X5214825Y-5184674D01*
X5214825Y-5184674D02*
X5243396Y-5184674D01*
X5243396Y-5184674D02*
X5262444Y-5194198D01*
X5262444Y-5194198D02*
X5271968Y-5203722D01*
X5271968Y-5203722D02*
X5281491Y-5222770D01*
X5281491Y-5222770D02*
X5281491Y-5270389D01*
X5281491Y-5270389D02*
X5271968Y-5289436D01*
X5271968Y-5289436D02*
X5262444Y-5298960D01*
X5262444Y-5298960D02*
X5243396Y-5308484D01*
X5243396Y-5308484D02*
X5186253Y-5308484D01*
X5186253Y-5308484D02*
X5167206Y-5298960D01*
X5167206Y-5298960D02*
X5157682Y-5289436D01*
X5376729Y-5308484D02*
X5414825Y-5308484D01*
X5414825Y-5308484D02*
X5433872Y-5298960D01*
X5433872Y-5298960D02*
X5443396Y-5289436D01*
X5443396Y-5289436D02*
X5462444Y-5260865D01*
X5462444Y-5260865D02*
X5471968Y-5222770D01*
X5471968Y-5222770D02*
X5471968Y-5146579D01*
X5471968Y-5146579D02*
X5462444Y-5127531D01*
X5462444Y-5127531D02*
X5452920Y-5118008D01*
X5452920Y-5118008D02*
X5433872Y-5108484D01*
X5433872Y-5108484D02*
X5395777Y-5108484D01*
X5395777Y-5108484D02*
X5376729Y-5118008D01*
X5376729Y-5118008D02*
X5367206Y-5127531D01*
X5367206Y-5127531D02*
X5357682Y-5146579D01*
X5357682Y-5146579D02*
X5357682Y-5194198D01*
X5357682Y-5194198D02*
X5367206Y-5213246D01*
X5367206Y-5213246D02*
X5376729Y-5222770D01*
X5376729Y-5222770D02*
X5395777Y-5232293D01*
X5395777Y-5232293D02*
X5433872Y-5232293D01*
X5433872Y-5232293D02*
X5452920Y-5222770D01*
X5452920Y-5222770D02*
X5462444Y-5213246D01*
X5462444Y-5213246D02*
X5471968Y-5194198D01*
X5643396Y-5175150D02*
X5643396Y-5308484D01*
X5595777Y-5098960D02*
X5548158Y-5241817D01*
X5548158Y-5241817D02*
X5671967Y-5241817D01*
X5738634Y-5108484D02*
X5738634Y-5146579D01*
X5814825Y-5108484D02*
X5814825Y-5146579D01*
X6110063Y-5384674D02*
X6100539Y-5375150D01*
X6100539Y-5375150D02*
X6081491Y-5346579D01*
X6081491Y-5346579D02*
X6071968Y-5327531D01*
X6071968Y-5327531D02*
X6062444Y-5298960D01*
X6062444Y-5298960D02*
X6052920Y-5251341D01*
X6052920Y-5251341D02*
X6052920Y-5213246D01*
X6052920Y-5213246D02*
X6062444Y-5165627D01*
X6062444Y-5165627D02*
X6071968Y-5137055D01*
X6071968Y-5137055D02*
X6081491Y-5118008D01*
X6081491Y-5118008D02*
X6100539Y-5089436D01*
X6100539Y-5089436D02*
X6110063Y-5079912D01*
X6291015Y-5308484D02*
X6176729Y-5308484D01*
X6233872Y-5308484D02*
X6233872Y-5108484D01*
X6233872Y-5108484D02*
X6214825Y-5137055D01*
X6214825Y-5137055D02*
X6195777Y-5156103D01*
X6195777Y-5156103D02*
X6176729Y-5165627D01*
X6367206Y-5127531D02*
X6376729Y-5118008D01*
X6376729Y-5118008D02*
X6395777Y-5108484D01*
X6395777Y-5108484D02*
X6443396Y-5108484D01*
X6443396Y-5108484D02*
X6462444Y-5118008D01*
X6462444Y-5118008D02*
X6471968Y-5127531D01*
X6471968Y-5127531D02*
X6481491Y-5146579D01*
X6481491Y-5146579D02*
X6481491Y-5165627D01*
X6481491Y-5165627D02*
X6471968Y-5194198D01*
X6471968Y-5194198D02*
X6357682Y-5308484D01*
X6357682Y-5308484D02*
X6481491Y-5308484D01*
X6719587Y-5308484D02*
X6719587Y-5108484D01*
X6805301Y-5308484D02*
X6805301Y-5203722D01*
X6805301Y-5203722D02*
X6795777Y-5184674D01*
X6795777Y-5184674D02*
X6776730Y-5175150D01*
X6776730Y-5175150D02*
X6748158Y-5175150D01*
X6748158Y-5175150D02*
X6729110Y-5184674D01*
X6729110Y-5184674D02*
X6719587Y-5194198D01*
X6929110Y-5308484D02*
X6910063Y-5298960D01*
X6910063Y-5298960D02*
X6900539Y-5289436D01*
X6900539Y-5289436D02*
X6891015Y-5270389D01*
X6891015Y-5270389D02*
X6891015Y-5213246D01*
X6891015Y-5213246D02*
X6900539Y-5194198D01*
X6900539Y-5194198D02*
X6910063Y-5184674D01*
X6910063Y-5184674D02*
X6929110Y-5175150D01*
X6929110Y-5175150D02*
X6957682Y-5175150D01*
X6957682Y-5175150D02*
X6976730Y-5184674D01*
X6976730Y-5184674D02*
X6986253Y-5194198D01*
X6986253Y-5194198D02*
X6995777Y-5213246D01*
X6995777Y-5213246D02*
X6995777Y-5270389D01*
X6995777Y-5270389D02*
X6986253Y-5289436D01*
X6986253Y-5289436D02*
X6976730Y-5298960D01*
X6976730Y-5298960D02*
X6957682Y-5308484D01*
X6957682Y-5308484D02*
X6929110Y-5308484D01*
X7110063Y-5308484D02*
X7091015Y-5298960D01*
X7091015Y-5298960D02*
X7081491Y-5279912D01*
X7081491Y-5279912D02*
X7081491Y-5108484D01*
X7262444Y-5298960D02*
X7243396Y-5308484D01*
X7243396Y-5308484D02*
X7205301Y-5308484D01*
X7205301Y-5308484D02*
X7186253Y-5298960D01*
X7186253Y-5298960D02*
X7176730Y-5279912D01*
X7176730Y-5279912D02*
X7176730Y-5203722D01*
X7176730Y-5203722D02*
X7186253Y-5184674D01*
X7186253Y-5184674D02*
X7205301Y-5175150D01*
X7205301Y-5175150D02*
X7243396Y-5175150D01*
X7243396Y-5175150D02*
X7262444Y-5184674D01*
X7262444Y-5184674D02*
X7271968Y-5203722D01*
X7271968Y-5203722D02*
X7271968Y-5222770D01*
X7271968Y-5222770D02*
X7176730Y-5241817D01*
X7348158Y-5298960D02*
X7367206Y-5308484D01*
X7367206Y-5308484D02*
X7405301Y-5308484D01*
X7405301Y-5308484D02*
X7424349Y-5298960D01*
X7424349Y-5298960D02*
X7433872Y-5279912D01*
X7433872Y-5279912D02*
X7433872Y-5270389D01*
X7433872Y-5270389D02*
X7424349Y-5251341D01*
X7424349Y-5251341D02*
X7405301Y-5241817D01*
X7405301Y-5241817D02*
X7376730Y-5241817D01*
X7376730Y-5241817D02*
X7357682Y-5232293D01*
X7357682Y-5232293D02*
X7348158Y-5213246D01*
X7348158Y-5213246D02*
X7348158Y-5203722D01*
X7348158Y-5203722D02*
X7357682Y-5184674D01*
X7357682Y-5184674D02*
X7376730Y-5175150D01*
X7376730Y-5175150D02*
X7405301Y-5175150D01*
X7405301Y-5175150D02*
X7424349Y-5184674D01*
X7500539Y-5384674D02*
X7510063Y-5375150D01*
X7510063Y-5375150D02*
X7529111Y-5346579D01*
X7529111Y-5346579D02*
X7538634Y-5327531D01*
X7538634Y-5327531D02*
X7548158Y-5298960D01*
X7548158Y-5298960D02*
X7557682Y-5251341D01*
X7557682Y-5251341D02*
X7557682Y-5213246D01*
X7557682Y-5213246D02*
X7548158Y-5165627D01*
X7548158Y-5165627D02*
X7538634Y-5137055D01*
X7538634Y-5137055D02*
X7529111Y-5118008D01*
X7529111Y-5118008D02*
X7510063Y-5089436D01*
X7510063Y-5089436D02*
X7500539Y-5079912D01*
M02*
